


EVENT   1
 PAGE   1
  0()



EVENT   2
 PAGE   1
  0()



EVENT   3
 PAGE   1
  281(1)
  250(bytes(0x04,0x08,0x6f,0x3a,0x0c,0x52,0x50,0x47,0x3a,0x3a,0x53,0x45,0x08,0x3a,0x0a,0x40,0x6e,0x61,0x6d,0x65,0x49,0x22,0x09,0x4d,0x6f,0x76,0x65,0x06,0x3a,0x06,0x45,0x54,0x3a,0x0b,0x40,0x70,0x69,0x74,0x63,0x68,0x69,0x69,0x3a,0x0c,0x40,0x76,0x6f,0x6c,0x75,0x6d,0x65,0x69,0x55))
  TeleportPlayer(0,41,15,16,0,0)
  0()



EVENT   4
 PAGE   1
  281(1)
  250(bytes(0x04,0x08,0x6f,0x3a,0x0c,0x52,0x50,0x47,0x3a,0x3a,0x53,0x45,0x08,0x3a,0x0a,0x40,0x6e,0x61,0x6d,0x65,0x49,0x22,0x09,0x4d,0x6f,0x76,0x65,0x06,0x3a,0x06,0x45,0x54,0x3a,0x0b,0x40,0x70,0x69,0x74,0x63,0x68,0x69,0x69,0x3a,0x0c,0x40,0x76,0x6f,0x6c,0x75,0x6d,0x65,0x69,0x55))
  TeleportPlayer(0,41,28,18,0,0)
  0()



EVENT   5
 PAGE   1
  281(1)
  250(bytes(0x04,0x08,0x6f,0x3a,0x0c,0x52,0x50,0x47,0x3a,0x3a,0x53,0x45,0x08,0x3a,0x0a,0x40,0x6e,0x61,0x6d,0x65,0x49,0x22,0x09,0x4d,0x6f,0x76,0x65,0x06,0x3a,0x06,0x45,0x54,0x3a,0x0b,0x40,0x70,0x69,0x74,0x63,0x68,0x69,0x69,0x3a,0x0c,0x40,0x76,0x6f,0x6c,0x75,0x6d,0x65,0x69,0x55))
  TeleportPlayer(0,41,48,7,0,0)
  0()



EVENT   6
 PAGE   1
  0()



EVENT   7
 PAGE   1
  0()



EVENT   8
 PAGE   1
  281(1)
  250(bytes(0x04,0x08,0x6f,0x3a,0x0c,0x52,0x50,0x47,0x3a,0x3a,0x53,0x45,0x08,0x3a,0x0a,0x40,0x6e,0x61,0x6d,0x65,0x49,0x22,0x09,0x4d,0x6f,0x76,0x65,0x06,0x3a,0x06,0x45,0x54,0x3a,0x0b,0x40,0x70,0x69,0x74,0x63,0x68,0x69,0x69,0x3a,0x0c,0x40,0x76,0x6f,0x6c,0x75,0x6d,0x65,0x69,0x55))
  TeleportPlayer(0,41,9,31,0,0)
  0()



EVENT   9
 PAGE   1
  281(1)
  250(bytes(0x04,0x08,0x6f,0x3a,0x0c,0x52,0x50,0x47,0x3a,0x3a,0x53,0x45,0x08,0x3a,0x0a,0x40,0x6e,0x61,0x6d,0x65,0x49,0x22,0x09,0x4d,0x6f,0x76,0x65,0x06,0x3a,0x06,0x45,0x54,0x3a,0x0b,0x40,0x70,0x69,0x74,0x63,0x68,0x69,0x69,0x3a,0x0c,0x40,0x76,0x6f,0x6c,0x75,0x6d,0x65,0x69,0x55))
  TeleportPlayer(0,41,31,24,0,0)
  0()



EVENT   10
 PAGE   1
  281(1)
  250(bytes(0x04,0x08,0x6f,0x3a,0x0c,0x52,0x50,0x47,0x3a,0x3a,0x53,0x45,0x08,0x3a,0x0a,0x40,0x6e,0x61,0x6d,0x65,0x49,0x22,0x09,0x4d,0x6f,0x76,0x65,0x06,0x3a,0x06,0x45,0x54,0x3a,0x0b,0x40,0x70,0x69,0x74,0x63,0x68,0x69,0x69,0x3a,0x0c,0x40,0x76,0x6f,0x6c,0x75,0x6d,0x65,0x69,0x55))
  TeleportPlayer(0,41,46,22,0,0)
  0()



EVENT   11
 PAGE   1
  281(1)
  250(bytes(0x04,0x08,0x6f,0x3a,0x0c,0x52,0x50,0x47,0x3a,0x3a,0x53,0x45,0x08,0x3a,0x0a,0x40,0x6e,0x61,0x6d,0x65,0x49,0x22,0x09,0x4d,0x6f,0x76,0x65,0x06,0x3a,0x06,0x45,0x54,0x3a,0x0b,0x40,0x70,0x69,0x74,0x63,0x68,0x69,0x69,0x3a,0x0c,0x40,0x76,0x6f,0x6c,0x75,0x6d,0x65,0x69,0x55))
  TeleportPlayer(0,41,18,37,0,0)
  0()



EVENT   12
 PAGE   1
  0()



EVENT   13
 PAGE   1
  0()



EVENT   14
 PAGE   1
  250(bytes(0x04,0x08,0x6f,0x3a,0x0c,0x52,0x50,0x47,0x3a,0x3a,0x53,0x45,0x08,0x3a,0x0a,0x40,0x6e,0x61,0x6d,0x65,0x49,0x22,0x09,0x4d,0x6f,0x76,0x65,0x06,0x3a,0x06,0x45,0x54,0x3a,0x0b,0x40,0x70,0x69,0x74,0x63,0x68,0x69,0x69,0x3a,0x0c,0x40,0x76,0x6f,0x6c,0x75,0x6d,0x65,0x69,0x55))
  TeleportPlayer(0,42,55,55,0,0)
  0()



EVENT   15
 PAGE   1
  250(bytes(0x04,0x08,0x6f,0x3a,0x0c,0x52,0x50,0x47,0x3a,0x3a,0x53,0x45,0x08,0x3a,0x0a,0x40,0x6e,0x61,0x6d,0x65,0x49,0x22,0x09,0x4d,0x6f,0x76,0x65,0x06,0x3a,0x06,0x45,0x54,0x3a,0x0b,0x40,0x70,0x69,0x74,0x63,0x68,0x69,0x69,0x3a,0x0c,0x40,0x76,0x6f,0x6c,0x75,0x6d,0x65,0x69,0x55))
  TeleportPlayer(0,42,56,55,0,0)
  0()



EVENT   16
 PAGE   1
  250(bytes(0x04,0x08,0x6f,0x3a,0x0c,0x52,0x50,0x47,0x3a,0x3a,0x53,0x45,0x08,0x3a,0x0a,0x40,0x6e,0x61,0x6d,0x65,0x49,0x22,0x09,0x4d,0x6f,0x76,0x65,0x06,0x3a,0x06,0x45,0x54,0x3a,0x0b,0x40,0x70,0x69,0x74,0x63,0x68,0x69,0x69,0x3a,0x0c,0x40,0x76,0x6f,0x6c,0x75,0x6d,0x65,0x69,0x55))
  TeleportPlayer(0,42,28,52,0,0)
  0()



EVENT   17
 PAGE   1
  250(bytes(0x04,0x08,0x6f,0x3a,0x0c,0x52,0x50,0x47,0x3a,0x3a,0x53,0x45,0x08,0x3a,0x0a,0x40,0x6e,0x61,0x6d,0x65,0x49,0x22,0x09,0x4d,0x6f,0x76,0x65,0x06,0x3a,0x06,0x45,0x54,0x3a,0x0b,0x40,0x70,0x69,0x74,0x63,0x68,0x69,0x69,0x3a,0x0c,0x40,0x76,0x6f,0x6c,0x75,0x6d,0x65,0x69,0x55))
  TeleportPlayer(0,42,29,52,0,0)
  0()



EVENT   18
 PAGE   1
  281(1)
  250(bytes(0x04,0x08,0x6f,0x3a,0x0c,0x52,0x50,0x47,0x3a,0x3a,0x53,0x45,0x08,0x3a,0x0a,0x40,0x6e,0x61,0x6d,0x65,0x49,0x22,0x09,0x4d,0x6f,0x76,0x65,0x06,0x3a,0x06,0x45,0x54,0x3a,0x0b,0x40,0x70,0x69,0x74,0x63,0x68,0x69,0x69,0x3a,0x0c,0x40,0x76,0x6f,0x6c,0x75,0x6d,0x65,0x69,0x55))
  TeleportPlayer(0,41,30,41,0,0)
  0()



EVENT   19
 PAGE   1
  ShowMessageFace("",0,0,2,1)
  ShowMessage("\\n<天使兵>外には、敵意を持つはぐれ天使が出没する。")
  ShowMessage("私たちも、武装する必要に駆られているのだ……")
  0()



EVENT   20
 PAGE   1
  ShowMessageFace("",0,0,2,1)
  ShowMessage("\\n<キューピッド>これ、かわい～♪")
  ShowMessage("特殊効果なんていらないから、半額で売ってよ。")
  0()



EVENT   21
 PAGE   1
  ShowMessageFace("",0,0,2,1)
  ShowMessage("\\n<天使>地上に墜ちた当初は、貨幣以前に私有財産が存在しなかった。")
  ShowMessage("それで、いろいろな問題が生じてしまってな……")
  ShowMessageFace("",0,0,2,2)
  ShowMessage("\\n<天使>最初のうちは独自の貨幣を使っていたが、すぐ人間の通貨を使うようになった。")
  ShowMessage("今では普通に、外界の通貨が村の中にも流通している。")
  355("actor_label_jump")
  EndEventProcessing()
  DefineLabel("196")
  ShowMessageFace("s_mermaid_fc1",0,0,2,3)
  ShowMessage("\\n<ミンク>じゃあ、この町でも普通に売り買いできるんやな。")
  EndEventProcessing()
  0()



EVENT   22
 PAGE   1
  250(bytes(0x04,0x08,0x6f,0x3a,0x0c,0x52,0x50,0x47,0x3a,0x3a,0x53,0x45,0x08,0x3a,0x0a,0x40,0x6e,0x61,0x6d,0x65,0x49,0x22,0x0a,0x49,0x74,0x65,0x6d,0x31,0x06,0x3a,0x06,0x45,0x54,0x3a,0x0b,0x40,0x70,0x69,0x74,0x63,0x68,0x69,0x69,0x3a,0x0c,0x40,0x76,0x6f,0x6c,0x75,0x6d,0x65,0x69,0x55))
  ChangeSelfSwitch("A",0)
  ChangeInventory_Item(32,0,0,1)
  0()
 PAGE   2
  // condition: self-switch A is ON
  0()



EVENT   23
 PAGE   1
  ShowMessageFace("",0,0,2,1)
  ShowMessage("\\n<天使>チョコ専門店です。")
  ShowMessage("あまあまな気分で極楽を……")
  Shop(0,414,0,0,false)
  605(0,415,0,0)
  605(0,416,0,0)
  0()



EVENT   24
 PAGE   1
  ShowMessageFace("",0,0,2,1)
  ShowMessage("\\n<武器屋>優れた武具が揃っていますよ。")
  ShowMessage("身の安全を守るためにも、ぜひどうぞ……")
  Shop(1,181,0,0,false)
  605(1,230,0,0)
  605(1,745,0,0)
  605(1,909,0,0)
  605(2,142,0,0)
  605(2,172,0,0)
  0()



EVENT   25
 PAGE   1
  ShowMessageFace("",0,0,2,1)
  ShowMessage("\\n<天使>天使のケーキで天国へ誘いましょう……")
  Shop(0,417,0,0,false)
  605(0,418,0,0)
  605(0,419,0,0)
  0()



EVENT   26
 PAGE   1
  If(1,837,0,2,1)
   If(0,1586,1)
    ShowMessageFace("mob_ninzya1_fc1",0,0,2,1)
    ShowMessage("\\n<ショウキ>お前達なら、我が力を託しても良いな……")
    ShowMessage("この刃、必要としてはいないか？")
    ShowChoices(strings("仲間にする","仲間にしない"),0)
    IfPlayerPicksChoice(0,null)
     ShowMessageFace("mob_ninzya1_fc1",0,0,2,2)
     ShowMessage("\\n<ショウキ>では、共に征こう……")
     PictureClear(5)
     205(0,bytes(0x04,0x08,0x6f,0x3a,0x13,0x52,0x50,0x47,0x3a,0x3a,0x4d,0x6f,0x76,0x65,0x52,0x6f,0x75,0x74,0x65,0x09,0x3a,0x0c,0x40,0x72,0x65,0x70,0x65,0x61,0x74,0x46,0x3a,0x0f,0x40,0x73,0x6b,0x69,0x70,0x70,0x61,0x62,0x6c,0x65,0x46,0x3a,0x0a,0x40,0x77,0x61,0x69,0x74,0x54,0x3a,0x0a,0x40,0x6c,0x69,0x73,0x74,0x5b,0x09,0x6f,0x3a,0x15,0x52,0x50,0x47,0x3a,0x3a,0x4d,0x6f,0x76,0x65,0x43,0x6f,0x6d,0x6d,0x61,0x6e,0x64,0x07,0x3a,0x0a,0x40,0x63,0x6f,0x64,0x65,0x69,0x2a,0x3a,0x10,0x40,0x70,0x61,0x72,0x61,0x6d,0x65,0x74,0x65,0x72,0x73,0x5b,0x00,0x6f,0x3b,0x0a,0x07,0x3b,0x0b,0x69,0x0f,0x3b,0x0c,0x5b,0x00,0x6f,0x3b,0x0a,0x07,0x3b,0x0b,0x69,0x2c,0x3b,0x0c,0x5b,0x00,0x6f,0x3b,0x0a,0x07,0x3b,0x0b,0x69,0x00,0x3b,0x0c,0x5b,0x00))
     355("add_actor_ex(586)")
     249(bytes(0x04,0x08,0x6f,0x3a,0x0c,0x52,0x50,0x47,0x3a,0x3a,0x4d,0x45,0x08,0x3a,0x0a,0x40,0x6e,0x61,0x6d,0x65,0x49,0x22,0x0c,0x66,0x61,0x6e,0x66,0x61,0x6c,0x65,0x06,0x3a,0x06,0x45,0x54,0x3a,0x0b,0x40,0x70,0x69,0x74,0x63,0x68,0x69,0x69,0x3a,0x0c,0x40,0x76,0x6f,0x6c,0x75,0x6d,0x65,0x69,0x69))
     ShowMessageFace("",0,0,2,3)
     ShowMessage("ショウキが仲間に加わった！")
     Wait(60)
     EndEventProcessing()
     0()
    IfPlayerPicksChoice(1,null)
     ShowMessageFace("mob_ninzya1_fc1",0,0,2,4)
     ShowMessage("\\n<ショウキ>そうか……")
     0()
    404()
    0()
   EndIf()
   0()
  EndIf()
  If(2,"A",1)
   ChangeSelfSwitch("A",0)
   ShowMessageFace("mob_ninzya1_fc1",0,0,2,5)
   ShowMessage("\\n<ショウキ>お前達が、この村に二番目に訪れた人間か……")
   ShowMessage("ずいぶん雑多な組み合わせに見えるな。")
   ShowMessageFace("mob_ninzya1_fc1",0,0,2,6)
   ShowMessage("\\n<ショウキ>私は、サバサのアサシン団の一員。")
   ShowMessage("前王の命令で氷の大陸の探索に派遣されたのだ。")
   ShowMessageFace("mob_ninzya1_fc1",0,0,2,7)
   ShowMessage("\\n<ショウキ>しかし仲間達は、過酷な環境で次々と倒れていき……")
   ShowMessage("結果的に、私だけが天使の村で保護されるという結果となったのだ。")
   ShowMessageFace("mob_ninzya1_fc1",0,0,2,8)
   ShowMessage("\\n<ショウキ>体は完全に回復し、天使達は帰っても良いと言ったが……")
   ShowMessage("しばらくは、サバサに戻る気はない。")
   ShowMessageFace("mob_ninzya1_fc1",0,0,2,9)
   ShowMessage("\\n<ショウキ>雪の洞窟に倒れた仲間達を弔ってやりたいし……")
   ShowMessage("この静かな聖地で、修練を積んでみたくもなったのだ。")
   ShowMessageFace("mob_ninzya1_fc1",0,0,2,10)
   ShowMessage("\\n<ショウキ>そういうわけで、そっとしておいてくれ。")
   ShowMessage("だが、バトルファックならば修行がてらに付き合うぞ。")
   0()
  Else()
   ShowMessageFace("mob_ninzya1_fc1",0,0,2,11)
   ShowMessage("\\n<ショウキ>悪いが、しばらく祖国に戻るつもりはない。")
   ShowMessage("だが、バトルファックならば修行がてらに付き合うぞ。")
   0()
  EndIf()
  ShowChoices(strings("バトルファックがしたい","用はない"),2)
  IfPlayerPicksChoice(0,null)
   RunCommonEvent(7361)
   0()
  IfPlayerPicksChoice(1,null)
   0()
  404()
  0()
 PAGE   2
  // condition: party contains actor #586
  0()



EVENT   27
 PAGE   1
  If(2,"A",1)
   ChangeSelfSwitch("A",0)
   PictureDisplay(5,"80_ranael_st11",0,0,0,0,100,100,0,0)
   PictureMove(5,null,0,0,0,0,100,100,255,0,30,true)
   ShowMessageFace("ranael_fc1",0,0,2,1)
   ShowMessage("\\n<ラナエル>なんと、外の世界から来訪者とは……")
   ShowMessage("この三十年で、二度目ではないでしょうか。")
   If(0,4,0)
    ShowMessageFace("alice_fc5",2,0,2,2)
    ShowMessage("\\n<Alice>お前が、天使達のリーダーか？")
    ShowMessageFace("ranael_fc1",0,0,2,3)
    ShowMessage("\\n<ラナエル>私はあくまで、天使長の代理に過ぎません。")
    ShowMessage("あの方は、町の統治などといった些事には関わられないのです。")
    0()
   EndIf()
   If(0,5,0)
    ShowMessageFace("iriasu_fc4",2,0,2,4)
    ShowMessage("\\n<Ilias>ラナエル……")
    ShowMessage("あなたが、天使達を束ねているのですか？")
    ShowMessageFace("ranael_fc1",0,0,2,5)
    ShowMessage("\\n<ラナエル>おや、イリアス様によく似た小さな天使……")
    ShowMessage("私はあくまで、天使長の代理を務めているだけの事。")
    ShowMessageFace("ranael_fc1",0,0,2,6)
    ShowMessage("\\n<ラナエル>あの方は、町の統治などといった些事には関わられないのです。")
    0()
   EndIf()
   0()
  EndIf()
  DefineLabel("説明")
  ShowMessageFace("ranael_fc1",0,0,2,7)
  ShowMessage("\\n<ラナエル>さて、何か聞きたいことがあるのですか？")
  ShowMessage("私で良ければ、お答えしましょう……")
  ShowChoices(strings("雪の大陸について","天使長について","マナを乱す原因について","聞く事はない"),4)
  IfPlayerPicksChoice(0,null)
   ShowMessageFace("ranael_fc1",2,0,2,8)
   ShowMessage("\\n<ラナエル>忘れもしない、三十年前のあの日……")
   ShowMessage("女神イリアス様が、お姿を消したあの日……")
   ShowMessageFace("ranael_fc1",2,0,2,9)
   ShowMessage("\\n<ラナエル>謎の異界化現象が、イリアス神殿を襲いました。")
   ShowMessage("同時に天界は傾き、下界へと墜落してしまったのです。")
   ShowMessageFace("ranael_fc1",2,0,2,10)
   ShowMessage("\\n<ラナエル>下界に投げ出され、私達は恐れおののきました。")
   ShowMessage("汚濁と野蛮に満ちた世界で、生きていくしかなかったのです……")
   ShowMessageFace("ranael_fc1",2,0,2,11)
   ShowMessage("\\n<ラナエル>それから三十年、我々はここまでの復興を成し遂げました。")
   ShowMessage("いつの日か、イリアス様が再臨される日を信じて……")
   ShowMessageFace("ranael_fc1",0,0,2,12)
   ShowMessage("\\n<ラナエル>それが、この雪の大陸と……そして、スノウヘブンの全てです。")
   ShowMessage("何も分からないまま地上に投げ出された、我々の苦難の歴史なのです。")
   JumpToLabel("説明")
   0()
  IfPlayerPicksChoice(1,null)
   ShowMessageFace("ranael_fc1",0,0,2,13)
   ShowMessage("\\n<ラナエル>天使長とは、地に堕ちた我々を統率されたお方。")
   ShowMessage("しかしほとんど町にはいないため、私が代理を務めております。")
   ShowMessageFace("ranael_fc1",0,0,2,14)
   ShowMessage("\\n<ラナエル>天使長の居場所ですか……？")
   ShowMessage("この町から南東にある「雪のほこら」の最奥におられます。")
   ShowMessageFace("ranael_fc1",0,0,2,15)
   ShowMessage("\\n<ラナエル>そこにこもられ、昼夜の別なく祈りを捧げておられるのです。")
   ShowMessage("女神イリアス様の帰還される日を、ひたすらに待ち望みながら……")
   If(0,5,0)
    ShowMessageFace("iriasu_fc4",2,0,2,16)
    ShowMessage("\\n<Ilias>ひたすらに祈る暇があったら、助けにきてほしいものです。")
    0()
   EndIf()
   JumpToLabel("説明")
   0()
  IfPlayerPicksChoice(2,null)
   ShowMessageFace("ranael_fc1",0,0,2,17)
   ShowMessage("\\n<ラナエル>マナの流れが、乱れているのですか……")
   ShowMessage("原因がこの大陸にあるとしたら、おそらくイリアス神殿でしょう。")
   ShowMessageFace("sonia_fc2",2,0,2,18)
   ShowMessage("\\n<Sonya>イリアス神殿って……")
   ShowMessage("イリアスヴィルに建ってる神殿の事じゃないよね？")
   ShowMessageFace("ranael_fc1",0,0,2,19)
   ShowMessage("\\n<ラナエル>あなた達の知る、外界のイリアス神殿とは別物。")
   ShowMessage("かつて天界に存在した、イリアス様のおわす荘厳な神殿の事です。")
   ShowMessageFace("ranael_fc1",2,0,2,20)
   ShowMessage("\\n<ラナエル>しかしイリアス神殿は、かの大異変の際に異界化しました。")
   ShowMessage("その侵蝕を抑えるため、現在は結界が張られているのです。")
   If(0,4,0)
    ShowMessageFace("alice_fc5",2,0,2,21)
    ShowMessage("\\n<Alice>異界化した、かつてのイリアス神殿か……")
    ShowMessage("いかにも、謎の核心がありそうな場所だな。")
    ShowMessageFace("alice_fc5",0,0,2,22)
    ShowMessage("\\n<Alice>しかし結界が張られているとなれば、容易に中には入れん。")
    ShowMessage("結界の術者を訪ね、一時的に解除してもらわねばならんな。")
    0()
   EndIf()
   If(0,5,0)
    ShowMessageFace("iriasu_fc4",7,0,2,23)
    ShowMessage("\\n<Ilias>異界化したイリアス神殿……")
    ShowMessage("間違いなく、そこが謎の核心ですね。")
    ShowMessageFace("iriasu_fc4",7,0,2,24)
    ShowMessage("\\n<Ilias>しかし結界が張られているとなれば、中に入るのは面倒です。")
    ShowMessage("結界の術者に命じ、解除させる必要がありますね。")
    0()
   EndIf()
   ShowMessageFace("ranael_fc1",0,0,2,25)
   ShowMessage("\\n<ラナエル>神殿を封じているのは、雪のほこらにいる天使長です。")
   ShowMessage("中に入りたければ、天使長に頼むしかないでしょうね。")
   If(0,4,0)
    ShowMessageFace("alice_fc5",0,0,2,26)
    ShowMessage("\\n<Alice>分かった、天使長とやらは確か「雪のほこら」にいるのだったな。")
    ShowMessage("この町の南東だったか……行ってみよう。")
    0()
   EndIf()
   If(0,5,0)
    ShowMessageFace("iriasu_fc4",7,0,2,27)
    ShowMessage("\\n<Ilias>話は分かりました、天使長は「雪のほこら」にいるのでしたね。")
    ShowMessage("場所は確か、この町の南東……今すぐ行きましょう。")
    0()
   EndIf()
   ShowMessageFace("ruka_fc1",0,0,2,28)
   ShowMessage("\\n<Luka>よし、天使長に会いに行こう！")
   ShowMessage("快く結界を解いてくれるといいんだけど……")
   ChangeVariable(1076,1076,0,0,4)
   JumpToLabel("説明")
   0()
  IfPlayerPicksChoice(3,null)
   PictureClear(5)
   EndEventProcessing()
   0()
  404()
  0()
 PAGE   2
  // condition: variable 1076 >= 5
  PictureDisplay(5,"80_ranael_st11",0,0,0,0,100,100,0,0)
  PictureMove(5,null,0,0,0,0,100,100,255,0,30,true)
  If(0,4,0)
   ShowMessageFace("ranael_fc1",0,0,2,1)
   ShowMessage("\\n<ラナエル>天使長は、今日も明日も雪のほこらで祈っておられます。")
   ShowMessage("私達の誰も、あの方のようにはなれません……")
   PictureClear(5)
   EndEventProcessing()
   0()
  EndIf()
  If(0,5,0)
   If(2,"A",1)
    ChangeSelfSwitch("A",0)
    ShowMessageFace("ranael_fc1",0,0,2,2)
    ShowMessage("\\n<ラナエル>天使長は、今日も明日も雪のほこらで祈っておられます。")
    ShowMessage("私達の誰も、あの方のようにはなれません……")
    ShowMessageFace("eden_fc1",0,0,2,3)
    ShowMessage("\\n<Eden>ラナエル、私は行かねばなりません。")
    ShowMessage("この町の事、任せましたよ……")
    ShowMessageFace("ranael_fc1",0,0,2,4)
    ShowMessage("\\n<ラナエル>天使長が動かれた……")
    ShowMessage("……という事は、まさか……！")
    If(1,1077,0,2,1)
     ShowMessageFace("micaelac_fc1",0,0,2,5)
     ShowMessage("\\n<Micaela-chan>ミカエラちゃんも、ここに……")
     ShowMessageFace("rucyfinac_fc1",0,0,2,6)
     ShowMessage("\\n<Lucifina-chan>ルシフィナちゃんだよ～♪")
     0()
    EndIf()
    ShowMessageFace("ranael_fc1",0,0,2,7)
    ShowMessage("\\n<ラナエル>ああ、なんという事でしょう……")
    ShowMessage("私の胸が、至福で満たされていきます……")
    ShowMessageFace("eden_fc1",0,0,2,8)
    ShowMessage("\\n<Eden>町の者には、伏せておくように。")
    ShowMessage("私達はまだ、やるべき事がありますから……")
    ShowMessageFace("ranael_fc1",0,0,2,9)
    ShowMessage("\\n<ラナエル>了解いたしました……")
    ShowMessage("皆様、くれぐれもお気を付け下さい。")
    PictureClear(5)
    EndEventProcessing()
    0()
   EndIf()
   If(2,"A",0)
    ShowMessageFace("ranael_fc1",0,0,2,10)
    ShowMessage("\\n<ラナエル>イリアス様……ご機嫌はいかがですか？")
    ShowMessage("お疲れならば、この町でごゆるりとお過ごし下さい。")
    PictureClear(5)
    EndEventProcessing()
    0()
   EndIf()
   0()
  EndIf()
  0()



EVENT   28
 PAGE   1
  ShowMessageFace("",0,0,2,1)
  ShowMessage("\\n<天使>おいしいアイスはいかがですか？")
  ShowMessage("ひんやりゼリーや、プリンもありますよ。")
  Shop(0,421,0,0,false)
  605(0,422,0,0)
  605(0,423,0,0)
  605(0,424,0,0)
  0()



EVENT   29
 PAGE   1
  ShowMessageFace("",0,0,2,1)
  ShowMessage("\\n<天使>正直、地上暮らしも悪くない……")
  ShowMessage("天界には、食べ物というものが存在しなかったから。")
  ShowMessageFace("",0,0,2,2)
  ShowMessage("\\n<天使>イリアス様、お許し下さい……")
  ShowMessage("私は堕落しております……")
  If(0,5,0)
   ShowMessageFace("iriasu_fc4",3,0,2,3)
   ShowMessage("\\n<Ilias>むぐむぐ……なんと罪深い。")
   ShowMessage("もぐもぐ……欲に負け堕落した己を恥じなさい……")
   ShowMessageFace("sonia_fc4",0,0,2,4)
   ShowMessage("\\n<Sonya>（チョコを口いっぱいに頬張って言うことじゃないわね……）")
   0()
  EndIf()
  0()



EVENT   30
 PAGE   1
  ShowMessageFace("",0,0,2,1)
  ShowMessage("\\n<天使>地上の人間は、こんな悦楽を満喫していたなんて……")
  ShowMessage("精神が堕落するのも当然です……！")
  ShowMessageFace("",0,0,2,2)
  ShowMessage("\\n<天使>私も堕落しそう……")
  355("actor_label_jump")
  EndEventProcessing()
  DefineLabel("5")
  ShowMessageFace("alice_fc5",7,0,2,3)
  ShowMessage("\\n<Alice>余も堕落していいか？")
  EndEventProcessing()
  0()



EVENT   31
 PAGE   1
  ShowMessageFace("",0,0,2,1)
  ShowMessage("\\n<天使>ああ、甘い……")
  ShowMessage("ほっぺたがとろけてしまいそう……")
  0()



EVENT   32
 PAGE   1
  ShowMessageFace("",0,0,2,1)
  ShowMessage("\\n<天使>地上に墜ちた私達は、食事を摂取する必要に駆られました。")
  ShowMessage("しかし肉など食べる気にならず、糖分の摂取に専念する事にしたのです。")
  ShowMessageFace("",0,0,2,2)
  ShowMessage("\\n<天使>それがいつしか、お菓子ショップ大繁盛という事態に……")
  ShowMessage("ああ、甘くておいしい……")
  0()



EVENT   33
 PAGE   1
  ShowMessageFace("",0,0,2,1)
  ShowMessage("\\n<天使>至福の甘さ……")
  ShowMessage("このまま堕天使に一直線……")
  ShowMessageFace("",0,0,2,2)
  ShowMessage("\\n<天使>……あと、体重が増えた気がします。")
  ShowMessage("まさか、こんなトラップが……")
  0()



EVENT   34
 PAGE   1
  ShowMessageFace("",0,0,2,1)
  ShowMessage("\\n<ヴァルキリー>むしゃむしゃ……もぐもぐ……")
  ShowMessage("……み、見ないで……！　堕落した私を見ないで……！")
  0()



EVENT   35
 PAGE   1
  ShowMessageFace("",0,0,2,1)
  ShowMessage("\\n<ヴァルキリー>職業には、一般職、上級職、最上級職の三種が存在するが……")
  ShowMessage("古代の書物によれば、その上に「封印職」なるものが存在するという。")
  ShowMessageFace("",0,0,2,2)
  ShowMessage("\\n<ヴァルキリー>女神や邪神によって、封印されたという職業だが……")
  ShowMessage("それがどのようなものなのかは、謎に包まれているのだ。")
  0()



EVENT   36
 PAGE   1
  ShowMessageFace("",0,0,2,1)
  ShowMessage("\\n<天使>この店は……まさに天国です。")
  0()



EVENT   37
 PAGE   1
  ShowMessageFace("",0,0,2,1)
  ShowMessage("\\n<Smith>天界では、冶金の技を学んでおりました。")
  ShowMessage("今は鍛冶屋として生計を立てております。")
  355("call_synthesize(22)")
  0()



EVENT   38
 PAGE   1
  ShowMessageFace("",0,0,2,1)
  ShowMessage("\\n<天使>基本的に、ラナエル様がこの町を統治。")
  ShowMessage("問題が起きた時のみ、天使長に相談するというスタイルです。")
  ShowMessageFace("",0,0,2,2)
  ShowMessage("\\n<天使>天使長は常に、イリアス様のご帰還を祈っておられますから……")
  ShowMessage("雑務でお心を煩わせたくはありません。")
  355("actor_label_jump")
  EndEventProcessing()
  DefineLabel("383")
  ShowMessageFace("eden_fc1",0,0,2,3)
  ShowMessage("\\n<Eden>祈りの時間は終わりました、これからは戦う時です。")
  ShowMessage("あなた達は、この町を守っていて下さいね。")
  ShowMessageFace("",0,0,2,4)
  ShowMessage("\\n<天使>はっ！　確かに！")
  EndEventProcessing()
  0()



EVENT   39
 PAGE   1
  ShowMessageFace("",0,0,2,1)
  ShowMessage("\\n<天使>町を営むとなると、雑事が次から次へ溢れるものですね……")
  ShowMessage("大異変以来、ようやく落ち着いたのもごく最近の事なのです。")
  0()



EVENT   40
 PAGE   1
  ShowMessageFace("",0,0,2,1)
  ShowMessage("\\n<天使>ここは、町を治めておられるラナエル様のお家です。")
  0()



EVENT   41
 PAGE   1
  ShowMessageFace("",0,0,2,1)
  ShowMessage("\\n<天使>天界が墜落した際、一部を除く大半の建物が失われました。")
  ShowMessage("ゆえに人間にならい、木やレンガで家を建て、町を築いたのです。")
  ShowMessageFace("",0,0,2,2)
  ShowMessage("\\n<天使>商人に化けて人間の町や村にまぎれ、多くの品を仕入れる事もありました。")
  ShowMessage("ここまで復興が進んだのも、苦節の日々がなした事なのです……")
  355("actor_label_jump")
  EndEventProcessing()
  DefineLabel("36")
  ShowMessageFace("rucyfinac_fc1",0,0,2,3)
  ShowMessage("\\n<Lucifina-chan>がんばったんだね……えらい、えらい。")
  EndEventProcessing()
  0()



EVENT   42
 PAGE   1
  If(0,2259,1)
   217()
   ShowMessageFace("",0,0,2,1)
   ShowMessage("\\n<天使>地上に墜ちるまでは、寒いという感覚さえ知りませんでした……")
   250(bytes(0x04,0x08,0x6f,0x3a,0x0c,0x52,0x50,0x47,0x3a,0x3a,0x53,0x45,0x08,0x3a,0x0a,0x40,0x6e,0x61,0x6d,0x65,0x49,0x22,0x0a,0x4f,0x70,0x65,0x6e,0x31,0x06,0x3a,0x06,0x45,0x54,0x3a,0x0b,0x40,0x70,0x69,0x74,0x63,0x68,0x69,0x69,0x3a,0x0c,0x40,0x76,0x6f,0x6c,0x75,0x6d,0x65,0x69,0x55))
   Wait(30)
   250(bytes(0x04,0x08,0x6f,0x3a,0x0c,0x52,0x50,0x47,0x3a,0x3a,0x53,0x45,0x08,0x3a,0x0a,0x40,0x6e,0x61,0x6d,0x65,0x49,0x22,0x09,0x4d,0x6f,0x76,0x65,0x06,0x3a,0x06,0x45,0x54,0x3a,0x0b,0x40,0x70,0x69,0x74,0x63,0x68,0x69,0x69,0x3a,0x0c,0x40,0x76,0x6f,0x6c,0x75,0x6d,0x65,0x69,0x55))
   ChangeSwitch(31,31,0)
   Wait(60)
   ShowMessageFace("sonia_fc3",2,0,2,2)
   ShowMessage("\\n<Sonya>わぁっ！　シロクマ！")
   ShowMessageFace("shirokuma_fc1",0,0,2,3)
   ShowMessage("\\n<シロクマ娘>さむさむ……")
   205(43,bytes(0x04,0x08,0x6f,0x3a,0x13,0x52,0x50,0x47,0x3a,0x3a,0x4d,0x6f,0x76,0x65,0x52,0x6f,0x75,0x74,0x65,0x09,0x3a,0x0c,0x40,0x72,0x65,0x70,0x65,0x61,0x74,0x46,0x3a,0x0f,0x40,0x73,0x6b,0x69,0x70,0x70,0x61,0x62,0x6c,0x65,0x46,0x3a,0x0a,0x40,0x77,0x61,0x69,0x74,0x54,0x3a,0x0a,0x40,0x6c,0x69,0x73,0x74,0x5b,0x0c,0x6f,0x3a,0x15,0x52,0x50,0x47,0x3a,0x3a,0x4d,0x6f,0x76,0x65,0x43,0x6f,0x6d,0x6d,0x61,0x6e,0x64,0x07,0x3a,0x0a,0x40,0x63,0x6f,0x64,0x65,0x69,0x09,0x3a,0x10,0x40,0x70,0x61,0x72,0x61,0x6d,0x65,0x74,0x65,0x72,0x73,0x5b,0x00,0x6f,0x3b,0x0a,0x07,0x3b,0x0b,0x69,0x09,0x3b,0x0c,0x5b,0x00,0x6f,0x3b,0x0a,0x07,0x3b,0x0b,0x69,0x09,0x3b,0x0c,0x5b,0x00,0x6f,0x3b,0x0a,0x07,0x3b,0x0b,0x69,0x09,0x3b,0x0c,0x5b,0x00,0x6f,0x3b,0x0a,0x07,0x3b,0x0b,0x69,0x07,0x3b,0x0c,0x5b,0x00,0x6f,0x3b,0x0a,0x07,0x3b,0x0b,0x69,0x2d,0x3b,0x0c,0x5b,0x00,0x6f,0x3b,0x0a,0x07,0x3b,0x0b,0x69,0x00,0x3b,0x0c,0x5b,0x00))
   ChangeSwitch(2259,2259,0)
   ChangeSwitch(31,31,1)
   ShowMessageFace("shirokuma_fc1",0,0,2,4)
   ShowMessage("\\n<シロクマ娘>家の中、ぬくぬく……")
   0()
  EndIf()
  ShowMessageFace("",0,0,2,5)
  ShowMessage("\\n<天使>シロクマ娘が、家に温もりに来るようになってしまいました。")
  ShowMessage("外は寒いですからね……")
  ShowMessageFace("",0,0,2,6)
  ShowMessage("\\n<天使>最初は驚きましたが、今ではもう受け入れています。")
  ShowMessage("くっついていると、温かいですしね……")
  0()



EVENT   43
 PAGE   1
  // condition: switch 31 is ON
  0()



EVENT   44
 PAGE   1
  // condition: switch 2259 is ON
  ShowMessageFace("shirokuma_fc1",0,0,2,1)
  ShowMessage("\\n<シロクマ娘>家の中、ぬくぬく……")
  355("actor_label_jump")
  EndEventProcessing()
  DefineLabel("359")
  ShowMessageFace("cupid_fc1",4,0,2,2)
  ShowMessage("\\n<キューピー>シロクマちゃん、ぬくぬく～♪")
  EndEventProcessing()
  0()



EVENT   45
 PAGE   1
  ShowMessageFace("",0,0,2,1)
  ShowMessage("\\n<道具屋>各種アイテムが揃っていますよ。")
  ShowMessage("きっと旅にも役立つでしょう……")
  Shop(0,2,0,0,false)
  605(0,4,0,0)
  605(0,7,0,0)
  605(0,11,0,0)
  605(0,13,0,0)
  605(0,14,0,0)
  605(0,15,0,0)
  605(0,16,0,0)
  605(0,17,0,0)
  605(0,18,0,0)
  605(0,19,0,0)
  605(0,20,0,0)
  605(0,21,0,0)
  605(0,23,0,0)
  605(0,35,0,0)
  605(0,109,0,0)
  If(1,1005,0,20,0)
   If(4,66,0)
    If(0,2065,0)
     If(2,"A",1)
      ChangeSelfSwitch("A",0)
      ShowMessageFace("vgirl_fc1",0,0,2,2)
      ShowMessage("\\n<Vanilla>はじめまして、商人のヴァニラです。")
      ShowMessage("霊薬を、うちの店でも扱いたいのですが……")
      ShowMessageFace("",0,0,2,3)
      ShowMessage("\\n<道具屋>それは難しいでしょう。")
      ShowMessage("霊薬の備蓄量は、あくまで町の需要に応える程度。")
      ShowMessageFace("",0,0,2,4)
      ShowMessage("\\n<道具屋>もっと霊粉があれば、たくさんの霊薬が造れるのですが……")
      ShowMessageFace("vgirl_fc1",0,0,2,5)
      ShowMessage("\\n<Vanilla>霊粉というのは、どこにあるんですか？")
      ShowMessageFace("",0,0,2,6)
      ShowMessage("\\n<道具屋>この大陸の、聖素が濃い地域の空気から抽出します。")
      ShowMessage("どうしても微量になりますので、効率的ではありませんが……")
      ShowMessageFace("",0,0,2,7)
      ShowMessage("\\n<道具屋>ただし、創世の館に入ることができれば……")
      ShowMessage("霊粉の高濃度凝縮体である、聖霊粉が安置されているかもしれません。")
      ShowMessageFace("vgirl_fc1",0,0,2,8)
      ShowMessage("\\n<Vanilla>それさえあれば、霊薬の大量生産が可能ですね？")
      ShowMessage("じゃあ、創世の館に行ってみるのだ！")
      EndEventProcessing()
      0()
     Else()
      If(8,554)
       ChangeInventory_Item(554,1,0,1)
       ShowMessageFace("",0,0,2,9)
       ShowMessage("\\n<道具屋>聖霊粉、確かに受け取りました。")
       ShowMessage("これで霊薬を大量に造る事が可能になるでしょう……")
       ShowMessageFace("",0,0,2,10)
       ShowMessage("\\n<道具屋>約束通り、そちらのお店にも納入しましょう。")
       ShowMessage("価格は、申し出の通りでお願いします。")
       ShowMessageFace("vgirl_fc1",0,0,2,11)
       ShowMessage("\\n<Vanilla>ありがとうございます！")
       ShowMessage("今後ともよろしく……なのだ！")
       249(bytes(0x04,0x08,0x6f,0x3a,0x0c,0x52,0x50,0x47,0x3a,0x3a,0x4d,0x45,0x08,0x3a,0x0a,0x40,0x6e,0x61,0x6d,0x65,0x49,0x22,0x0c,0x66,0x61,0x6e,0x66,0x61,0x6c,0x65,0x06,0x3a,0x06,0x45,0x54,0x3a,0x0b,0x40,0x70,0x69,0x74,0x63,0x68,0x69,0x69,0x3a,0x0c,0x40,0x76,0x6f,0x6c,0x75,0x6d,0x65,0x69,0x69))
       ShowMessageFace("",0,0,2,12)
       ShowMessage("ヴァニラの店で霊薬を扱うようになった！")
       ChangeVariable(1005,1005,0,0,21)
       ChangeSwitch(2065,2065,1)
       Wait(60)
       EndEventProcessing()
       0()
      Else()
       ShowMessageFace("",0,0,2,13)
       ShowMessage("\\n<道具屋>創世の館に入ることができれば……")
       ShowMessage("霊粉の高濃度凝縮体である、聖霊粉が安置されているかもしれません。")
       EndEventProcessing()
       0()
      EndIf()
      0()
     EndIf()
     0()
    EndIf()
    0()
   EndIf()
   0()
  EndIf()
  0()



EVENT   46
 PAGE   1
  ShowMessageFace("",0,0,2,1)
  ShowMessage("\\n<商人に化けた天使>それでは、サバサへ出稼ぎに行ってくるか。")
  ShowMessage("今回追加で必要なのは、カカオ豆とコーヒーだったな。")
  ShowMessageFace("",0,0,2,2)
  ShowMessage("\\n<商人に化けた天使>外界に混じれるほど適応した天使は、私を含めごくわずか。")
  ShowMessage("ほとんどの天使は、まだまだ人間の町に出るなど不可能だろう。")
  ShowMessageFace("",0,0,2,3)
  ShowMessage("\\n<商人に化けた天使>……天界があった頃、私は地上の信仰心を管理する担当でな。")
  ShowMessage("俗世の風習に関しても、それなりの知識があったのだ。")
  0()



EVENT   47
 PAGE   1
  ShowMessageFace("",0,0,2,1)
  ShowMessage("\\n<アクセサリ屋>便利なアクセサリはいかがですか？")
  ShowMessage("おそらく、地上で手に入る品で最も優れているはずです。")
  Shop(2,1067,0,0,false)
  605(2,1072,0,0)
  605(2,1077,0,0)
  605(2,1155,0,0)
  605(2,1165,0,0)
  605(2,1538,0,0)
  605(2,1540,0,0)
  605(2,1542,0,0)
  605(2,1544,0,0)
  605(2,1573,0,0)
  605(2,1575,0,0)
  605(2,1577,0,0)
  605(2,1579,0,0)
  0()



EVENT   48
 PAGE   1
  ShowMessageFace("",0,0,2,1)
  ShowMessage("\\n<天使>多くの天使が、昇天魔法を使用してきます。")
  ShowMessage("ヘブンガードは、ぜひ持っておきたいですね。")
  0()



EVENT   49
 PAGE   1
  ShowMessageFace("",0,0,2,1)
  ShowMessage("\\n<宿屋の天使>よくぞおいで下さいました。")
  ShowMessage("15Gになりますが、体を休めますか？\\$")
  ShowChoices(strings("はい","いいえ"),2)
  IfPlayerPicksChoice(0,null)
   If(7,15,0)
    125(1,0,15)
    221()
    249(bytes(0x04,0x08,0x6f,0x3a,0x0c,0x52,0x50,0x47,0x3a,0x3a,0x4d,0x45,0x08,0x3a,0x0a,0x40,0x6e,0x61,0x6d,0x65,0x49,0x22,0x08,0x49,0x6e,0x6e,0x06,0x3a,0x06,0x45,0x54,0x3a,0x0b,0x40,0x70,0x69,0x74,0x63,0x68,0x69,0x69,0x3a,0x0c,0x40,0x76,0x6f,0x6c,0x75,0x6d,0x65,0x69,0x69))
    Wait(150)
    314(0,0)
    222()
    0()
   Else()
    ShowMessageFace("",0,0,2,2)
    ShowMessage("\\n<宿屋の天使>お金が足りないようですね……")
    0()
   EndIf()
   0()
  IfPlayerPicksChoice(1,null)
   0()
  404()
  0()



EVENT   50
 PAGE   1
  ShowMessageFace("",0,0,2,1)
  ShowMessage("\\n<天使>旅人も来ない町で、宿など儲かるのかとも思ったが……")
  ShowMessage("ここで少しの時間、のんびりしていく天使も多いようだ。")
  0()



EVENT   51
 PAGE   1
  ShowMessageFace("",0,0,2,1)
  ShowMessage("\\n<天使>数週間ほど警備の仕事をした後、ここで数日ばかり体を休めるのが常。")
  ShowMessage("天使のライフサイクルでは、持ち家など持て余す者も多いのだ。")
  ShowMessageFace("",0,0,2,2)
  ShowMessage("\\n<天使>そうした者にとって、この宿はとても助かる。")
  ShowMessage("数日の間、何も不足なく世話してもらえるからな……")
  0()



EVENT   52
 PAGE   1
  ShowMessageFace("",0,0,2,1)
  ShowMessage("\\n<天使>宿というのは、良いものですね……")
  ShowMessage("ここにいる間はゴロゴロしているだけでいいなんて。")
  0()



EVENT   53
 PAGE   1
  ShowMessageFace("",0,0,2,1)
  ShowMessage("\\n<天使>働いて、休んで、働いて……")
  ShowMessage("汗を流し、生きているという事を実感する毎日です。")
  0()



EVENT   54
 PAGE   1
  ShowMessageFace("",0,0,2,1)
  ShowMessage("\\n<天使>もう数日休んだ後、開拓作業に戻りましょう。")
  ShowMessage("外の世界では、出稼ぎ労働者スタイルと言うのでしたね。")
  0()



EVENT   55
 PAGE   1
  ShowMessageFace("",0,0,2,1)
  ShowMessage("\\n<キューピッド>アイス、チョコ、ケーキ……")
  ShowMessage("ああ、心がダメになっちゃう～♪")
  0()



EVENT   56
 PAGE   1
  250(bytes(0x04,0x08,0x6f,0x3a,0x0c,0x52,0x50,0x47,0x3a,0x3a,0x53,0x45,0x08,0x3a,0x0a,0x40,0x6e,0x61,0x6d,0x65,0x49,0x22,0x0a,0x49,0x74,0x65,0x6d,0x31,0x06,0x3a,0x06,0x45,0x54,0x3a,0x0b,0x40,0x70,0x69,0x74,0x63,0x68,0x69,0x69,0x3a,0x0c,0x40,0x76,0x6f,0x6c,0x75,0x6d,0x65,0x69,0x55))
  ChangeSelfSwitch("A",0)
  ChangeInventory_Item(57,0,0,1)
  0()
 PAGE   2
  // condition: self-switch A is ON
  0()



EVENT   57
 PAGE   1
  250(bytes(0x04,0x08,0x6f,0x3a,0x0c,0x52,0x50,0x47,0x3a,0x3a,0x53,0x45,0x08,0x3a,0x0a,0x40,0x6e,0x61,0x6d,0x65,0x49,0x22,0x0a,0x49,0x74,0x65,0x6d,0x31,0x06,0x3a,0x06,0x45,0x54,0x3a,0x0b,0x40,0x70,0x69,0x74,0x63,0x68,0x69,0x69,0x3a,0x0c,0x40,0x76,0x6f,0x6c,0x75,0x6d,0x65,0x69,0x55))
  ChangeSelfSwitch("A",0)
  ChangeInventory_Item(77,0,0,1)
  0()
 PAGE   2
  // condition: self-switch A is ON
  0()



EVENT   58
 PAGE   1
  250(bytes(0x04,0x08,0x6f,0x3a,0x0c,0x52,0x50,0x47,0x3a,0x3a,0x53,0x45,0x08,0x3a,0x0a,0x40,0x6e,0x61,0x6d,0x65,0x49,0x22,0x0a,0x49,0x74,0x65,0x6d,0x31,0x06,0x3a,0x06,0x45,0x54,0x3a,0x0b,0x40,0x70,0x69,0x74,0x63,0x68,0x69,0x69,0x3a,0x0c,0x40,0x76,0x6f,0x6c,0x75,0x6d,0x65,0x69,0x55))
  ChangeSelfSwitch("A",0)
  ChangeInventory_Item(241,0,0,1)
  0()
 PAGE   2
  // condition: self-switch A is ON
  0()



EVENT   59
 PAGE   1
  250(bytes(0x04,0x08,0x6f,0x3a,0x0c,0x52,0x50,0x47,0x3a,0x3a,0x53,0x45,0x08,0x3a,0x0a,0x40,0x6e,0x61,0x6d,0x65,0x49,0x22,0x0a,0x49,0x74,0x65,0x6d,0x31,0x06,0x3a,0x06,0x45,0x54,0x3a,0x0b,0x40,0x70,0x69,0x74,0x63,0x68,0x69,0x69,0x3a,0x0c,0x40,0x76,0x6f,0x6c,0x75,0x6d,0x65,0x69,0x55))
  ChangeSelfSwitch("A",0)
  ChangeInventory_Item(417,0,0,1)
  0()
 PAGE   2
  // condition: self-switch A is ON
  0()



EVENT   60
 PAGE   1
  250(bytes(0x04,0x08,0x6f,0x3a,0x0c,0x52,0x50,0x47,0x3a,0x3a,0x53,0x45,0x08,0x3a,0x0a,0x40,0x6e,0x61,0x6d,0x65,0x49,0x22,0x0a,0x49,0x74,0x65,0x6d,0x31,0x06,0x3a,0x06,0x45,0x54,0x3a,0x0b,0x40,0x70,0x69,0x74,0x63,0x68,0x69,0x69,0x3a,0x0c,0x40,0x76,0x6f,0x6c,0x75,0x6d,0x65,0x69,0x55))
  ChangeSelfSwitch("A",0)
  ChangeInventory_Item(322,0,0,1)
  0()
 PAGE   2
  // condition: self-switch A is ON
  0()



EVENT   61
 PAGE   1
  250(bytes(0x04,0x08,0x6f,0x3a,0x0c,0x52,0x50,0x47,0x3a,0x3a,0x53,0x45,0x08,0x3a,0x0a,0x40,0x6e,0x61,0x6d,0x65,0x49,0x22,0x0a,0x49,0x74,0x65,0x6d,0x31,0x06,0x3a,0x06,0x45,0x54,0x3a,0x0b,0x40,0x70,0x69,0x74,0x63,0x68,0x69,0x69,0x3a,0x0c,0x40,0x76,0x6f,0x6c,0x75,0x6d,0x65,0x69,0x55))
  ChangeSelfSwitch("A",0)
  ChangeInventory_Item(8,0,0,1)
  0()
 PAGE   2
  // condition: self-switch A is ON
  0()



EVENT   62
 PAGE   1
  250(bytes(0x04,0x08,0x6f,0x3a,0x0c,0x52,0x50,0x47,0x3a,0x3a,0x53,0x45,0x08,0x3a,0x0a,0x40,0x6e,0x61,0x6d,0x65,0x49,0x22,0x0a,0x49,0x74,0x65,0x6d,0x31,0x06,0x3a,0x06,0x45,0x54,0x3a,0x0b,0x40,0x70,0x69,0x74,0x63,0x68,0x69,0x69,0x3a,0x0c,0x40,0x76,0x6f,0x6c,0x75,0x6d,0x65,0x69,0x55))
  ChangeSelfSwitch("A",0)
  ChangeInventory_Item(19,0,0,1)
  0()
 PAGE   2
  // condition: self-switch A is ON
  0()



EVENT   63
 PAGE   1
  250(bytes(0x04,0x08,0x6f,0x3a,0x0c,0x52,0x50,0x47,0x3a,0x3a,0x53,0x45,0x08,0x3a,0x0a,0x40,0x6e,0x61,0x6d,0x65,0x49,0x22,0x0a,0x49,0x74,0x65,0x6d,0x31,0x06,0x3a,0x06,0x45,0x54,0x3a,0x0b,0x40,0x70,0x69,0x74,0x63,0x68,0x69,0x69,0x3a,0x0c,0x40,0x76,0x6f,0x6c,0x75,0x6d,0x65,0x69,0x55))
  ChangeSelfSwitch("A",0)
  ChangeInventory_Item(25,0,0,1)
  0()
 PAGE   2
  // condition: self-switch A is ON
  0()
